[
null,
{"id":1,"expanded":false,"name":"Mansion001","order":1,"parentId":0,"scrollX":865.6363636363636,"scrollY":505.0909090909091},
{"id":2,"expanded":true,"name":"Blazing Dungeon","order":6,"parentId":5,"scrollX":865.6363636363636,"scrollY":505.0909090909091},
{"id":3,"expanded":true,"name":"Garden001","order":3,"parentId":0,"scrollX":832,"scrollY":640},
{"id":4,"expanded":true,"name":"Blaz4","order":10,"parentId":2,"scrollX":785.5,"scrollY":673},
{"id":5,"expanded":true,"name":"Kingdom-Map001","order":5,"parentId":0,"scrollX":1543.0909090909092,"scrollY":1769.4545454545455},
{"id":6,"expanded":true,"name":"Kingdom-Map002","order":12,"parentId":0,"scrollX":1185.2727272727273,"scrollY":1173.8181818181818},
{"id":7,"expanded":false,"name":"Bedroom001","order":2,"parentId":1,"scrollX":865.6363636363636,"scrollY":505.0909090909091},
{"id":8,"expanded":true,"name":"Blaz1","order":7,"parentId":2,"scrollX":785.5,"scrollY":479},
{"id":9,"expanded":false,"name":"Blaz5","order":11,"parentId":2,"scrollX":865.6363636363636,"scrollY":505.0909090909091},
{"id":10,"expanded":false,"name":"Blaz2","order":9,"parentId":2,"scrollX":785.5,"scrollY":542},
{"id":11,"expanded":false,"name":"Blaz3","order":8,"parentId":2,"scrollX":793.5,"scrollY":479},
{"id":12,"expanded":true,"name":"Garden001-backup","order":4,"parentId":3,"scrollX":865.6363636363636,"scrollY":505.0909090909091}
]