[
null,
{"id":1,"list":[{"code":111,"indent":0,"parameters":[0,6,0]},{"code":201,"indent":1,"parameters":[0,5,34,24,0,0]},{"code":0,"indent":1,"parameters":[]},{"code":411,"indent":0,"parameters":[]},{"code":101,"indent":1,"parameters":["",0,1,2]},{"code":401,"indent":1,"parameters":["\\>The \\c[31]Map\\c[0] cannot be used here."]},{"code":0,"indent":1,"parameters":[]},{"code":412,"indent":0,"parameters":[]},{"code":0,"indent":0,"parameters":[]}],"name":"Map world","switchId":1,"trigger":0},
{"id":2,"list":[{"code":122,"indent":0,"parameters":[5,5,0,0,6]},{"code":117,"indent":0,"parameters":[5]},{"code":0,"indent":0,"parameters":[]}],"name":"Misc item obtained msg","switchId":1,"trigger":0},
{"id":3,"list":[{"code":122,"indent":0,"parameters":[5,5,0,0,3]},{"code":117,"indent":0,"parameters":[5]},{"code":0,"indent":0,"parameters":[]}],"name":"Consumable found msg","switchId":1,"trigger":0},
{"id":4,"list":[{"code":122,"indent":0,"parameters":[5,5,0,0,31]},{"code":117,"indent":0,"parameters":[5]},{"code":0,"indent":0,"parameters":[]}],"name":"Special found msg","switchId":1,"trigger":0},
{"id":5,"list":[{"code":250,"indent":0,"parameters":[{"name":"Save","volume":65,"pitch":100,"pan":0}]},{"code":101,"indent":0,"parameters":["",0,0,2]},{"code":401,"indent":0,"parameters":["\\>\\V[2] \\C[\\V[5]]\\fb\\V[3] \\I[\\V[4]] \\fr\\C[0]obtained."]},{"code":0,"indent":0,"parameters":[]}],"name":"Item obtained msg","switchId":1,"trigger":0},
{"id":6,"list":[{"code":122,"indent":0,"parameters":[2,2,0,0,1]},{"code":122,"indent":0,"parameters":[3,3,0,4,"\"Ancient Fragment\""]},{"code":122,"indent":0,"parameters":[4,4,0,0,197]},{"code":122,"indent":0,"parameters":[5,5,0,0,4]},{"code":126,"indent":0,"parameters":[10,0,1,2]},{"code":117,"indent":0,"parameters":[5]},{"code":0,"indent":0,"parameters":[]}],"name":"1 Ancient F found","switchId":1,"trigger":0},
{"id":7,"list":[{"code":122,"indent":0,"parameters":[10,10,0,2,1,36]},{"code":111,"indent":0,"parameters":[1,10,0,10,2]},{"code":126,"indent":1,"parameters":[1,0,0,1]},{"code":122,"indent":1,"parameters":[3,3,0,4,"\"Health potion\""]},{"code":117,"indent":1,"parameters":[8]},{"code":119,"indent":1,"parameters":["Final"]},{"code":0,"indent":1,"parameters":[]},{"code":412,"indent":0,"parameters":[]},{"code":111,"indent":0,"parameters":[1,10,0,20,2]},{"code":126,"indent":1,"parameters":[2,0,0,1]},{"code":122,"indent":1,"parameters":[3,3,0,4,"\"Skill potion\""]},{"code":117,"indent":1,"parameters":[8]},{"code":119,"indent":1,"parameters":["Final"]},{"code":0,"indent":1,"parameters":[]},{"code":412,"indent":0,"parameters":[]},{"code":111,"indent":0,"parameters":[1,10,0,30,2]},{"code":126,"indent":1,"parameters":[3,0,0,1]},{"code":122,"indent":1,"parameters":[3,3,0,4,"\"Nulberry\""]},{"code":117,"indent":1,"parameters":[8]},{"code":119,"indent":1,"parameters":["Final"]},{"code":0,"indent":1,"parameters":[]},{"code":412,"indent":0,"parameters":[]},{"code":111,"indent":0,"parameters":[1,10,0,31,2]},{"code":126,"indent":1,"parameters":[4,0,0,1]},{"code":122,"indent":1,"parameters":[3,3,0,4,"\"Max potion\""]},{"code":117,"indent":1,"parameters":[8]},{"code":119,"indent":1,"parameters":["Final"]},{"code":0,"indent":1,"parameters":[]},{"code":412,"indent":0,"parameters":[]},{"code":111,"indent":0,"parameters":[1,10,0,36,2]},{"code":126,"indent":1,"parameters":[5,0,0,1]},{"code":122,"indent":1,"parameters":[3,3,0,4,"\"Life powder\""]},{"code":117,"indent":1,"parameters":[8]},{"code":119,"indent":1,"parameters":["Final"]},{"code":0,"indent":1,"parameters":[]},{"code":412,"indent":0,"parameters":[]},{"code":118,"indent":0,"parameters":["Final"]},{"code":0,"indent":0,"parameters":[]}],"name":"Stealing rnd","switchId":1,"trigger":0},
{"id":8,"list":[{"code":250,"indent":0,"parameters":[{"name":"Save","volume":65,"pitch":100,"pan":0}]},{"code":101,"indent":0,"parameters":["",0,0,2]},{"code":401,"indent":0,"parameters":["\\>\\C[3]\\V[3] stolen!"]},{"code":0,"indent":0,"parameters":[]}],"name":"Steal msg","switchId":1,"trigger":0},
{"id":9,"list":[{"code":122,"indent":0,"parameters":[3,3,0,4,"\"Health potion\""]},{"code":122,"indent":0,"parameters":[4,4,0,0,176]},{"code":122,"indent":0,"parameters":[5,5,0,0,3]},{"code":126,"indent":0,"parameters":[1,0,1,2]},{"code":117,"indent":0,"parameters":[5]},{"code":0,"indent":0,"parameters":[]}],"name":"Health potion found","switchId":1,"trigger":0},
{"id":10,"list":[{"code":122,"indent":0,"parameters":[3,3,0,4,"\"Energy booster\""]},{"code":122,"indent":0,"parameters":[4,4,0,0,176]},{"code":122,"indent":0,"parameters":[5,5,0,0,3]},{"code":126,"indent":0,"parameters":[2,0,1,2]},{"code":117,"indent":0,"parameters":[5]},{"code":0,"indent":0,"parameters":[]}],"name":"Energy booster found","switchId":1,"trigger":0},
{"id":11,"list":[{"code":122,"indent":0,"parameters":[3,3,0,4,"\"Nulberry\""]},{"code":122,"indent":0,"parameters":[4,4,0,0,183]},{"code":122,"indent":0,"parameters":[5,5,0,0,3]},{"code":126,"indent":0,"parameters":[3,0,1,2]},{"code":117,"indent":0,"parameters":[5]},{"code":0,"indent":0,"parameters":[]}],"name":"Nulberry found","switchId":1,"trigger":0},
{"id":12,"list":[{"code":122,"indent":0,"parameters":[3,3,0,4,"\"Max potion\""]},{"code":122,"indent":0,"parameters":[4,4,0,0,180]},{"code":122,"indent":0,"parameters":[5,5,0,0,3]},{"code":126,"indent":0,"parameters":[4,0,1,2]},{"code":117,"indent":0,"parameters":[5]},{"code":0,"indent":0,"parameters":[]}],"name":"Max potion found","switchId":1,"trigger":0},
{"id":13,"list":[{"code":205,"indent":0,"parameters":[-1,{"list":[{"code":16,"indent":null},{"code":0}],"repeat":false,"skippable":false,"wait":true}]},{"code":505,"indent":0,"parameters":[{"code":16,"indent":null}]},{"code":0,"indent":0,"parameters":[]}],"name":"Sit down","switchId":1,"trigger":0},
{"id":14,"list":[{"code":121,"indent":0,"parameters":[19,19,0]},{"code":242,"indent":0,"parameters":[1]},{"code":250,"indent":0,"parameters":[{"name":"Bell1","volume":90,"pitch":60,"pan":0}]},{"code":211,"indent":0,"parameters":[0]},{"code":216,"indent":0,"parameters":[1]},{"code":221,"indent":0,"parameters":[]},{"code":201,"indent":0,"parameters":[0,7,8,7,2,2]},{"code":0,"indent":0,"parameters":[]}],"name":"Bed transfer","switchId":1,"trigger":0},
{"id":15,"list":[{"code":129,"indent":0,"parameters":[3,0,false]},{"code":0,"indent":0,"parameters":[]}],"name":"NERO ADD","switchId":18,"trigger":0},
{"id":16,"list":[{"code":129,"indent":0,"parameters":[2,0,false]},{"code":0,"indent":0,"parameters":[]}],"name":"ELY ADD","switchId":14,"trigger":0},
{"id":17,"list":[{"code":122,"indent":0,"parameters":[6,6,0,3,0,10,0]},{"code":122,"indent":0,"parameters":[6,6,4,0,10]},{"code":126,"indent":0,"parameters":[10,1,1,6]},{"code":101,"indent":0,"parameters":["",0,0,2]},{"code":401,"indent":0,"parameters":["\\i[197] \\c[10]\\fbAncient Fragments\\fr \\c[10]lost: \\v[6]"]},{"code":0,"indent":0,"parameters":[]}],"name":"Lost fragments","switchId":1,"trigger":0},
{"id":18,"list":[{"code":122,"indent":0,"parameters":[5,5,0,0,2]},{"code":117,"indent":0,"parameters":[5]},{"code":0,"indent":0,"parameters":[]}],"name":"Battle item found msg","switchId":1,"trigger":0},
{"id":19,"list":[{"code":122,"indent":0,"parameters":[3,3,0,4,"\"Ancient Fragment\""]},{"code":122,"indent":0,"parameters":[4,4,0,0,197]},{"code":122,"indent":0,"parameters":[5,5,0,0,4]},{"code":126,"indent":0,"parameters":[10,0,1,2]},{"code":117,"indent":0,"parameters":[5]},{"code":0,"indent":0,"parameters":[]}],"name":"n Ancient F found","switchId":1,"trigger":0},
{"id":20,"list":[{"code":0,"indent":0,"parameters":[]}],"name":"","switchId":1,"trigger":0}
]