{
"autoplayBgm":true,"autoplayBgs":false,"battleback1Name":"Grassland","battleback2Name":"Brick","bgm":{"name":"Field2","pan":0,"pitch":100,"volume":35},"bgs":{"name":"","pan":0,"pitch":100,"volume":90},"disableDashing":false,"displayName":"Mansion's park","encounterList":[{"regionSet":[],"troopId":1,"weight":0},{"regionSet":[],"troopId":4,"weight":0}],"encounterStep":30,"height":17,"note":"","parallaxLoopX":false,"parallaxLoopY":false,"parallaxName":"","parallaxShow":true,"parallaxSx":0,"parallaxSy":0,"scrollType":0,"specifyBattleback":true,"tilesetId":2,"width":20,
"data":[6200,6571,6570,6570,6570,6570,6574,1564,1565,1566,6571,6570,6570,6570,6570,6570,6570,6570,6570,6574,6200,3282,3268,3268,3268,3268,3284,1569,1569,1569,3282,3268,3268,3268,3268,3268,3268,3268,3268,3268,6200,3264,3248,3248,3248,3248,3272,1569,1569,1569,3264,3248,3248,3248,3248,3248,3248,3248,3248,3248,6200,3264,3248,3248,3248,3248,3272,1569,1569,1569,3264,3248,3248,3248,3248,3248,3248,3248,3248,3248,6200,3264,3248,3248,3248,3248,3272,1569,1569,1569,3288,3256,3248,3248,3248,3248,3248,3248,3248,3248,6200,3264,3248,3248,3248,3248,3272,1569,1569,1569,1569,3264,3248,3248,3248,3248,3248,3248,3248,3248,6200,3264,3248,3248,3248,3248,3250,3284,1569,1569,1569,3264,3248,3248,3248,3248,3248,3248,3248,3248,6200,3264,3248,3248,3248,3248,3248,3272,1569,1569,1569,3288,3256,3248,3248,3248,3248,3248,3248,3248,6200,3264,3248,3248,3248,3248,3248,3272,1569,1569,1569,1569,3264,3248,3248,3248,3248,3248,3248,3248,6200,3264,3248,3248,3248,3248,3248,3250,3284,1569,1569,1569,3288,3256,3248,3248,3248,3248,3248,3248,6200,3264,3248,3248,3248,3248,3248,3248,3272,1569,1569,1569,1569,3264,3248,3248,3248,3248,3248,3248,6200,3264,3248,3248,3248,3248,3248,3248,3250,3284,1569,1569,1569,3288,3276,3256,3248,3248,3248,3248,6200,3264,3248,3252,3276,3276,3276,3276,3256,3272,1569,1569,1569,1569,1569,3288,3276,3276,3276,3276,6200,3264,3252,3286,2466,2452,2452,2468,3288,3258,3284,1569,1569,1569,1569,1569,1569,1569,1569,1569,6200,3264,3272,2475,2441,2432,2432,2434,2468,3288,3273,1569,1569,1569,1569,1569,1569,1569,1569,1569,6200,3288,3278,3293,2472,2460,2460,2460,2462,2477,3289,3281,3293,1569,1569,1569,1569,1569,1569,1569,6178,6196,6196,6196,6196,6196,6196,6196,6196,6196,6196,6196,6196,6196,6196,6196,6196,6196,6196,6196,0,0,0,0,0,0,0,0,0,0,0,0,0,0,0,0,0,0,0,0,0,0,0,0,0,0,0,0,0,0,0,0,0,0,0,0,0,0,0,0,0,0,0,0,0,0,0,0,0,0,0,0,0,0,0,0,0,0,0,0,0,0,0,0,0,0,0,0,0,0,0,0,0,0,0,0,0,0,0,0,0,0,0,0,0,0,0,0,0,0,0,0,0,0,0,0,0,0,0,0,0,0,0,0,0,0,0,0,0,0,0,0,0,0,0,0,0,0,0,0,0,0,0,0,0,0,0,0,0,0,0,0,0,0,0,0,0,0,0,0,0,0,0,0,0,0,0,0,0,0,0,0,0,0,0,0,0,0,0,0,0,0,0,0,0,0,0,0,0,0,0,0,0,0,0,0,0,0,0,0,0,0,0,0,0,0,0,0,0,0,0,0,0,0,0,0,0,0,0,0,0,0,0,0,0,0,0,0,0,0,0,0,0,0,0,0,0,0,0,0,0,0,0,0,0,0,0,0,0,0,0,0,0,0,0,0,0,0,0,0,0,0,0,0,0,0,0,0,0,0,0,0,0,0,0,0,0,0,0,0,0,0,0,0,0,0,0,0,0,0,0,0,0,0,0,0,0,0,0,0,0,0,0,0,0,0,0,0,0,0,0,0,0,0,0,0,0,0,0,0,0,0,0,0,0,0,0,0,0,0,0,0,0,0,0,0,0,0,0,0,0,0,0,0,0,0,0,0,0,0,0,0,0,0,0,0,0,0,0,0,0,0,0,0,0,0,0,0,0,0,0,0,0,0,0,0,0,0,0,0,0,0,0,0,0,0,0,0,0,0,0,0,0,0,0,0,0,0,0,0,0,0,0,0,0,0,0,0,0,0,0,0,0,0,0,0,0,0,0,0,0,0,0,0,0,0,0,0,0,0,0,0,0,0,0,0,0,0,0,0,0,0,0,0,0,0,0,0,0,0,0,0,0,0,0,0,0,0,0,0,0,0,0,0,0,0,0,0,0,0,0,0,0,0,0,0,0,0,0,0,0,0,0,0,0,0,0,0,0,0,0,0,0,0,0,0,0,0,0,0,0,0,0,0,0,0,102,0,0,0,0,0,0,0,0,0,0,0,0,0,0,0,0,0,0,0,0,0,0,0,0,0,0,0,0,0,0,0,0,0,0,0,0,0,0,0,0,0,0,0,0,0,0,0,102,0,0,0,0,0,0,0,0,0,0,0,0,0,0,0,0,0,0,0,0,0,0,0,0,0,0,0,0,0,0,0,0,0,0,0,0,0,0,0,0,0,0,0,0,0,0,0,0,0,0,0,0,0,0,0,0,0,0,0,0,0,0,0,0,0,0,0,0,0,0,0,0,0,0,0,0,0,0,0,0,0,0,0,0,0,120,121,112,0,0,0,0,0,0,0,0,0,0,0,0,0,0,0,0,0,121,120,121,121,0,0,0,0,0,0,0,0,0,0,0,0,0,0,0,0,120,121,120,121,120,121,120,0,0,0,0,0,0,0,0,0,0,0,0,0,0,0,0,0,0,211,0,0,0,0,0,211,0,0,0,0,0,0,0,0,0,0,98,97,99,219,0,0,0,0,0,219,0,97,0,99,0,0,98,0,0,0,97,186,0,227,0,0,0,0,0,227,0,0,97,0,112,113,0,0,0,182,0,0,0,96,0,0,0,0,0,0,0,0,0,0,120,121,0,0,0,0,0,0,96,80,0,0,0,0,0,181,0,0,0,182,0,0,112,113,0,0,91,182,0,0,0,0,0,0,0,186,0,182,0,93,0,92,120,121,0,0,0,0,91,102,0,0,0,0,0,0,102,0,0,101,93,0,188,0,0,0,0,0,0,102,181,0,0,0,0,0,0,102,0,0,101,0,0,0,0,0,0,0,0,0,102,0,0,0,0,0,0,102,0,93,0,91,96,0,0,112,113,0,0,0,102,0,0,0,0,0,0,0,181,101,0,91,91,0,0,120,121,182,0,112,113,102,91,0,0,0,0,0,102,102,0,102,91,0,0,0,112,113,0,120,121,0,0,0,0,0,0,0,0,0,0,0,102,102,0,0,120,121,0,0,0,0,0,0,0,0,0,0,0,0,0,0,0,0,112,113,0,0,0,0,0,100,0,0,0,0,0,0,0,0,0,0,0,0,113,112,113,113,0,189,0,0,0,0,0,0,0,0,0,0,0,0,0,0,112,113,112,113,112,113,112,113,0,0,0,0,0,0,0,0,0,0,0,0,113,112,113,112,113,112,113,121,0,0,0,0,0,0,0,0,0,0,0,0,0,0,0,0,0,0,0,0,0,0,0,0,0,0,0,0,0,0,0,0,0,5,0,0,0,0,0,0,0,0,0,0,0,0,0,0,0,0,0,0,0,5,0,0,0,0,0,0,0,0,0,0,0,0,0,0,0,0,0,0,0,5,0,0,0,0,0,0,0,0,0,0,0,0,0,0,0,0,0,0,0,5,0,0,0,0,0,0,0,0,0,0,0,0,0,0,0,0,0,0,0,5,0,0,0,0,0,0,0,0,0,0,0,0,0,0,0,0,0,0,0,5,0,0,0,0,0,0,0,0,0,0,0,0,0,0,0,0,0,0,0,5,0,0,0,0,0,0,0,0,0,0,0,0,0,0,0,0,0,0,0,5,0,0,0,0,0,0,0,0,0,0,0,0,0,0,0,0,0,0,0,5,0,0,0,0,0,0,0,0,0,0,0,0,0,0,0,0,0,0,0,5,0,0,0,0,0,0,0,0,0,0,0,0,0,0,0,0,0,0,0,5,0,0,0,0,0,0,0,0,0,0,0,0,0,0,0,0,0,0,0,5,0,0,0,0,0,0,0,0,0,0,0,0,0,0,0,0,0,0,0,5,0,0,0,0,0,0,0,0,0,0,0,0,0,0,0,0,0,0,0,5,0,0,0,0,0,0,0,0,0,0,0,0,0,0,0,0,0,0,0,5,0,0,0,0,0,0,0,0,0,0,0,0,0,0,0,0,0,0,0,0,0,0,0,0,0,0,0,0,0,0,0,0,0,0,0,0,0,0,0,0,0,0,0,0,0,0,0,0,0,0,0,0,0,0,0,0,0,0,0,0,0,0,0,0,0,0,0,0,0,0,0,0,0,0,0,0,0,0,0,0,0,0,0,0,0,0,0,0,0,0,0,0,0,0,0,0,0,0,0,0,0,0,0,0,0,0,0,0,0,0,0,0,0,0,0,0,0,0,0,0,0,0,0,0,0,0,0,0,0,0,0,0,0,0,0,0,0,0,0,0,0,0,0,0,0,0,0,0,0,0,0,0,0,0,0,0,0,0,0,0,0,0,0,0,0,0,0,0,0,0,0,0,0,0,0,0,0,0,0,0,0,0,0,0,0,0,0,0,0,0,0,0,0,0,0,0,0,0,0,0,0,0,0,0,0,0,0,0,0,0,0,0,0,0,0,0,0,0,0,0,0,0,0,0,0,0,0,0,0,0,0,0,0,0,0,0,0,0,0,0,0,0,0,0,0,0,0,0,0,0,0,0,0,0,0,0,0,0,0,0,0,0,0,0,0,0,0,0,0,0,0,0,0,0,0,0,0,0,0,0,0,0,0,0,0,0,0,0,0,0,0,0,0,0,0,0,0,0,0,0,0,0,0,0,0,0,0,0,0,0,0,0,0,0,0,0,0,0,0,0,0,0,0,0,0,0,0,0,0,0,0,0,0,0,0,0,0,0,0,0,0,0,0,0,0,0,0,0,0,0,0,0,0,0,0,0,0,0,0,0,0,0,0,0,0,0,0,0,0,0,0,0,0,0,0,0,0,0],
"events":[
null,
{"id":1,"name":"EV001","note":"","pages":[{"conditions":{"actorId":1,"actorValid":false,"itemId":1,"itemValid":false,"selfSwitchCh":"A","selfSwitchValid":false,"switch1Id":1,"switch1Valid":false,"switch2Id":1,"switch2Valid":false,"variableId":1,"variableValid":false,"variableValue":0},"directionFix":true,"image":{"tileId":0,"characterName":"!Other1","direction":8,"pattern":1,"characterIndex":5},"list":[{"code":205,"indent":0,"parameters":[-1,{"list":[{"code":18,"indent":null},{"code":0}],"repeat":false,"skippable":false,"wait":true}]},{"code":505,"indent":0,"parameters":[{"code":18,"indent":null}]},{"code":101,"indent":0,"parameters":["Luna-DKT02",0,0,0]},{"code":401,"indent":0,"parameters":["... Suspicious tracks... \\|\\^"]},{"code":101,"indent":0,"parameters":["Luna-DKT01",6,0,0]},{"code":401,"indent":0,"parameters":["... Hunters? It can't be..."]},{"code":121,"indent":0,"parameters":[2,2,0]},{"code":123,"indent":0,"parameters":["A",0]},{"code":0,"indent":0,"parameters":[]}],"moveFrequency":3,"moveRoute":{"list":[{"code":0,"parameters":[]}],"repeat":true,"skippable":false,"wait":false},"moveSpeed":3,"moveType":0,"priorityType":0,"stepAnime":false,"through":true,"trigger":1,"walkAnime":false},{"conditions":{"actorId":1,"actorValid":false,"itemId":1,"itemValid":false,"selfSwitchCh":"A","selfSwitchValid":true,"switch1Id":1,"switch1Valid":false,"switch2Id":1,"switch2Valid":false,"variableId":1,"variableValid":false,"variableValue":0},"directionFix":false,"image":{"tileId":0,"characterName":"!Other1","direction":8,"pattern":1,"characterIndex":5},"list":[{"code":0,"indent":0,"parameters":[]}],"moveFrequency":3,"moveRoute":{"list":[{"code":0,"parameters":[]}],"repeat":true,"skippable":false,"wait":false},"moveSpeed":3,"moveType":0,"priorityType":0,"stepAnime":false,"through":false,"trigger":0,"walkAnime":false}],"x":16,"y":14},
{"id":2,"name":"EV002","note":"","pages":[{"conditions":{"actorId":1,"actorValid":false,"itemId":1,"itemValid":false,"selfSwitchCh":"A","selfSwitchValid":false,"switch1Id":1,"switch1Valid":false,"switch2Id":1,"switch2Valid":false,"variableId":1,"variableValid":false,"variableValue":0},"directionFix":false,"image":{"tileId":80,"characterName":"","characterIndex":0,"direction":2,"pattern":0},"list":[{"code":122,"indent":0,"parameters":[2,2,0,0,1]},{"code":117,"indent":0,"parameters":[10]},{"code":123,"indent":0,"parameters":["A",0]},{"code":0,"indent":0,"parameters":[]}],"moveFrequency":3,"moveRoute":{"list":[{"code":0,"parameters":[]}],"repeat":true,"skippable":false,"wait":false},"moveSpeed":3,"moveType":0,"priorityType":1,"stepAnime":false,"through":false,"trigger":0,"walkAnime":true},{"conditions":{"actorId":1,"actorValid":false,"itemId":1,"itemValid":false,"selfSwitchCh":"A","selfSwitchValid":true,"switch1Id":1,"switch1Valid":false,"switch2Id":1,"switch2Valid":false,"variableId":1,"variableValid":false,"variableValue":0},"directionFix":false,"image":{"tileId":80,"characterName":"","characterIndex":0,"direction":2,"pattern":0},"list":[{"code":0,"indent":0,"parameters":[]}],"moveFrequency":3,"moveRoute":{"list":[{"code":0,"parameters":[]}],"repeat":true,"skippable":false,"wait":false},"moveSpeed":3,"moveType":0,"priorityType":1,"stepAnime":false,"through":false,"trigger":0,"walkAnime":true}],"x":5,"y":4},
{"id":3,"name":"EV003","note":"","pages":[{"conditions":{"actorId":1,"actorValid":false,"itemId":1,"itemValid":false,"selfSwitchCh":"A","selfSwitchValid":false,"switch1Id":1,"switch1Valid":false,"switch2Id":1,"switch2Valid":false,"variableId":1,"variableValid":false,"variableValue":0},"directionFix":false,"image":{"characterIndex":0,"characterName":"","direction":2,"pattern":0,"tileId":0},"list":[{"code":201,"indent":0,"parameters":[0,1,20,7,4,0]},{"code":0,"indent":0,"parameters":[]}],"moveFrequency":3,"moveRoute":{"list":[{"code":0,"parameters":[]}],"repeat":true,"skippable":false,"wait":false},"moveSpeed":3,"moveType":0,"priorityType":0,"stepAnime":false,"through":false,"trigger":1,"walkAnime":true}],"x":8,"y":0},
{"id":4,"name":"EV004","note":"","pages":[{"conditions":{"actorId":1,"actorValid":false,"itemId":1,"itemValid":false,"selfSwitchCh":"A","selfSwitchValid":false,"switch1Id":1,"switch1Valid":false,"switch2Id":1,"switch2Valid":false,"variableId":1,"variableValid":false,"variableValue":0},"directionFix":false,"image":{"tileId":0,"characterName":"!Other1","direction":8,"pattern":1,"characterIndex":5},"list":[{"code":0,"indent":0,"parameters":[]}],"moveFrequency":3,"moveRoute":{"list":[{"code":0,"parameters":[]}],"repeat":true,"skippable":false,"wait":false},"moveSpeed":3,"moveType":0,"priorityType":0,"stepAnime":false,"through":true,"trigger":1,"walkAnime":false}],"x":17,"y":14},
{"id":5,"name":"EV005","note":"","pages":[{"conditions":{"actorId":1,"actorValid":false,"itemId":11,"itemValid":false,"selfSwitchCh":"A","selfSwitchValid":false,"switch1Id":2,"switch1Valid":false,"switch2Id":5,"switch2Valid":true,"variableId":1,"variableValid":false,"variableValue":0},"directionFix":false,"image":{"tileId":0,"characterName":"Dragonking_walk03","direction":4,"pattern":1,"characterIndex":2},"list":[{"code":205,"indent":0,"parameters":[0,{"list":[{"code":37,"indent":null},{"code":2,"indent":null},{"code":2,"indent":null},{"code":0}],"repeat":false,"skippable":false,"wait":true}]},{"code":505,"indent":0,"parameters":[{"code":37,"indent":null}]},{"code":505,"indent":0,"parameters":[{"code":2,"indent":null}]},{"code":505,"indent":0,"parameters":[{"code":2,"indent":null}]},{"code":205,"indent":0,"parameters":[-1,{"list":[{"code":18,"indent":null},{"code":0}],"repeat":false,"skippable":false,"wait":true}]},{"code":505,"indent":0,"parameters":[{"code":18,"indent":null}]},{"code":123,"indent":0,"parameters":["A",0]},{"code":0,"indent":0,"parameters":[]}],"moveFrequency":4,"moveRoute":{"list":[{"code":0,"parameters":[]}],"repeat":true,"skippable":false,"wait":false},"moveSpeed":4,"moveType":3,"priorityType":1,"stepAnime":false,"through":false,"trigger":3,"walkAnime":true},{"conditions":{"actorId":1,"actorValid":false,"itemId":1,"itemValid":false,"selfSwitchCh":"A","selfSwitchValid":true,"switch1Id":1,"switch1Valid":false,"switch2Id":1,"switch2Valid":false,"variableId":1,"variableValid":false,"variableValue":0},"directionFix":false,"image":{"tileId":0,"characterName":"Dragonking_walk03","direction":4,"pattern":1,"characterIndex":2},"list":[{"code":101,"indent":0,"parameters":["Nero-DKT01",1,0,2]},{"code":401,"indent":0,"parameters":["Milady! The Kingdom's safety is in"]},{"code":401,"indent":0,"parameters":["danger!"]},{"code":101,"indent":0,"parameters":["Luna-DKT02",3,0,2]},{"code":401,"indent":0,"parameters":["I know, I've just been attacked in my "]},{"code":401,"indent":0,"parameters":["very garden.\\."]},{"code":401,"indent":0,"parameters":["And neither me nor my baby is happy "]},{"code":401,"indent":0,"parameters":["about it."]},{"code":101,"indent":0,"parameters":["Luna-DKT02",0,0,2]},{"code":401,"indent":0,"parameters":["Nero, can you tell me what's going on?"]},{"code":401,"indent":0,"parameters":["Why are foreign Hunters suddenly being"]},{"code":401,"indent":0,"parameters":["so... invasive?"]},{"code":101,"indent":0,"parameters":["Nero-DKT01",0,0,2]},{"code":401,"indent":0,"parameters":["They aren't Hunters, Milady. At least, none"]},{"code":401,"indent":0,"parameters":["like those supervised by the Guild."]},{"code":101,"indent":0,"parameters":["Nero-DKT01",3,0,2]},{"code":401,"indent":0,"parameters":["These ones are \\C[14]poachers\\C[0]. Even the"]},{"code":401,"indent":0,"parameters":["Guild is tracking them down right now,  "]},{"code":401,"indent":0,"parameters":["due to their... negligence towards "]},{"code":401,"indent":0,"parameters":["respectful hunting practices."]},{"code":101,"indent":0,"parameters":["Luna-DKT02",4,0,2]},{"code":401,"indent":0,"parameters":["... So that's why this one was using some"]},{"code":401,"indent":0,"parameters":["sort of a chain-weapon?...\\|"]},{"code":401,"indent":0,"parameters":["And the \\C[14]Dragonwatch\\C[0]..."]},{"code":101,"indent":0,"parameters":["Nero-DKT01",3,0,2]},{"code":401,"indent":0,"parameters":["... An attempt from the Guild to localize"]},{"code":401,"indent":0,"parameters":["the outlaws, as far as I know. \\."]},{"code":401,"indent":0,"parameters":["But they aren't easy to find, and no one "]},{"code":401,"indent":0,"parameters":["knows what they are after."]},{"code":101,"indent":0,"parameters":["Luna-DKT02",3,0,2]},{"code":401,"indent":0,"parameters":["So for some reason they decided to come "]},{"code":401,"indent":0,"parameters":["here, in my home... Why?... \\."]},{"code":401,"indent":0,"parameters":["Look at this scroll...\\."]},{"code":401,"indent":0,"parameters":["It's a \\C[14]map of Teo's whole Kingdom."]},{"code":126,"indent":0,"parameters":[12,0,0,1]},{"code":126,"indent":0,"parameters":[11,1,0,1]},{"code":101,"indent":0,"parameters":["Nero-DKT01",4,0,2]},{"code":401,"indent":0,"parameters":["\\.It is... "]},{"code":401,"indent":0,"parameters":["And several spots have been marked."]},{"code":101,"indent":0,"parameters":["Luna-DKT02",3,0,2]},{"code":401,"indent":0,"parameters":["The \\C[14]Blazing Embrace\\C[0]...\\. "]},{"code":401,"indent":0,"parameters":["The \\C[14]Duskfall Forest\\C[0]...\\. "]},{"code":401,"indent":0,"parameters":["The \\C[14]Humming Sands\\C[0]...\\. "]},{"code":401,"indent":0,"parameters":["\\C[0]Even\\C[14] Teo's mansion."]},{"code":101,"indent":0,"parameters":["Nero-DKT01",4,0,2]},{"code":401,"indent":0,"parameters":["They can be the locales where they are "]},{"code":401,"indent":0,"parameters":["trying to look for...\\. the thing they are"]},{"code":401,"indent":0,"parameters":["looking for.\\."]},{"code":401,"indent":0,"parameters":["Or meeting points. "]},{"code":101,"indent":0,"parameters":["Luna-DKT02",0,0,2]},{"code":401,"indent":0,"parameters":["Whatever that \\fithing\\fr is, their hostility "]},{"code":401,"indent":0,"parameters":["is far from welcome on these lands. \\."]},{"code":401,"indent":0,"parameters":["I have to find them and force them "]},{"code":401,"indent":0,"parameters":["to leave. "]},{"code":101,"indent":0,"parameters":["Nero-DKT01",1,0,2]},{"code":401,"indent":0,"parameters":["... Milady? With all due respect, are you"]},{"code":401,"indent":0,"parameters":["sure that it's the best decision,"]},{"code":401,"indent":0,"parameters":["considering your current...\\. situation?"]},{"code":101,"indent":0,"parameters":["Luna-DKT01",6,0,2]},{"code":401,"indent":0,"parameters":["Teo is away, so it's my responsibility to "]},{"code":401,"indent":0,"parameters":["protect our home. I am NOT going to \\."]},{"code":401,"indent":0,"parameters":["miscarry my duty."]},{"code":101,"indent":0,"parameters":["Nero-DKT01",3,0,2]},{"code":401,"indent":0,"parameters":["I... won't try to change your mind, Milady.\\|"]},{"code":401,"indent":0,"parameters":["But at least... Let me accompany you. "]},{"code":401,"indent":0,"parameters":["My medicine and my close-ranged "]},{"code":401,"indent":0,"parameters":["combat skills are at your service."]},{"code":101,"indent":0,"parameters":["Luna-DKT01",0,0,2]},{"code":401,"indent":0,"parameters":["Thank you, Nero. I appreciate your help."]},{"code":101,"indent":0,"parameters":["Luna-DKT02",0,0,2]},{"code":401,"indent":0,"parameters":["We must find the poacher's headquarters "]},{"code":401,"indent":0,"parameters":["and try to understand their motives.\\."]},{"code":401,"indent":0,"parameters":["Let's first investigate the \\C[14]volcanoes\\C[0]; we"]},{"code":401,"indent":0,"parameters":["will have the advantage over them."]},{"code":123,"indent":0,"parameters":["B",0]},{"code":123,"indent":0,"parameters":["A",1]},{"code":0,"indent":0,"parameters":[]}],"moveFrequency":3,"moveRoute":{"list":[{"code":0,"parameters":[]}],"repeat":true,"skippable":false,"wait":false},"moveSpeed":3,"moveType":0,"priorityType":1,"stepAnime":false,"through":false,"trigger":3,"walkAnime":true},{"conditions":{"actorId":1,"actorValid":false,"itemId":1,"itemValid":false,"selfSwitchCh":"B","selfSwitchValid":true,"switch1Id":1,"switch1Valid":false,"switch2Id":1,"switch2Valid":false,"variableId":1,"variableValid":false,"variableValue":0},"directionFix":false,"image":{"characterIndex":0,"characterName":"","direction":2,"pattern":0,"tileId":0},"list":[{"code":129,"indent":0,"parameters":[3,0,false]},{"code":121,"indent":0,"parameters":[18,18,0]},{"code":101,"indent":0,"parameters":["",0,1,2]},{"code":401,"indent":0,"parameters":["\\>Open \\fb\\C[31]Map\\fr in the \\fiSpecial item\\fr tab of your inventory."]},{"code":121,"indent":0,"parameters":[7,7,0]},{"code":123,"indent":0,"parameters":["C",0]},{"code":0,"indent":0,"parameters":[]}],"moveFrequency":3,"moveRoute":{"list":[{"code":0,"parameters":[]}],"repeat":true,"skippable":false,"wait":false},"moveSpeed":3,"moveType":0,"priorityType":0,"stepAnime":false,"through":false,"trigger":3,"walkAnime":true},{"conditions":{"actorId":1,"actorValid":false,"itemId":1,"itemValid":false,"selfSwitchCh":"C","selfSwitchValid":true,"switch1Id":1,"switch1Valid":false,"switch2Id":1,"switch2Valid":false,"variableId":1,"variableValid":false,"variableValue":0},"directionFix":false,"image":{"characterIndex":0,"characterName":"","direction":2,"pattern":0,"tileId":0},"list":[{"code":0,"indent":0,"parameters":[]}],"moveFrequency":3,"moveRoute":{"list":[{"code":0,"parameters":[]}],"repeat":true,"skippable":false,"wait":false},"moveSpeed":3,"moveType":0,"priorityType":0,"stepAnime":false,"through":false,"trigger":0,"walkAnime":true}],"x":19,"y":9},
{"id":6,"name":"EV006","note":"","pages":[{"conditions":{"actorId":1,"actorValid":false,"itemId":8,"itemValid":false,"selfSwitchCh":"A","selfSwitchValid":false,"switch1Id":1,"switch1Valid":false,"switch2Id":1,"switch2Valid":false,"variableId":1,"variableValid":false,"variableValue":0},"directionFix":false,"image":{"tileId":81,"characterName":"","characterIndex":0,"direction":2,"pattern":0},"list":[{"code":101,"indent":0,"parameters":["",0,1,0]},{"code":401,"indent":0,"parameters":["Collect water?"]},{"code":102,"indent":0,"parameters":[["Collect","Don't collect"],1,0,2,1]},{"code":402,"indent":0,"parameters":[0,"Collect"]},{"code":250,"indent":1,"parameters":[{"name":"Dive","volume":90,"pitch":100,"pan":0}]},{"code":123,"indent":1,"parameters":["A",0]},{"code":0,"indent":1,"parameters":[]},{"code":402,"indent":0,"parameters":[1,"Don't collect"]},{"code":0,"indent":1,"parameters":[]},{"code":404,"indent":0,"parameters":[]},{"code":0,"indent":0,"parameters":[]}],"moveFrequency":3,"moveRoute":{"list":[{"code":0,"parameters":[]}],"repeat":true,"skippable":false,"wait":false},"moveSpeed":3,"moveType":0,"priorityType":1,"stepAnime":false,"through":false,"trigger":0,"walkAnime":true},{"conditions":{"actorId":1,"actorValid":false,"itemId":1,"itemValid":false,"selfSwitchCh":"A","selfSwitchValid":true,"switch1Id":1,"switch1Valid":false,"switch2Id":1,"switch2Valid":false,"variableId":1,"variableValid":false,"variableValue":0},"directionFix":false,"image":{"tileId":82,"characterName":"","characterIndex":0,"direction":2,"pattern":0},"list":[{"code":101,"indent":0,"parameters":["Luna-DKT01",7,0,2]},{"code":401,"indent":0,"parameters":["I mean... Water could be useful."]},{"code":401,"indent":0,"parameters":["But a bottle would be more convenient than"]},{"code":401,"indent":0,"parameters":["a big, wooden bucket."]},{"code":0,"indent":0,"parameters":[]}],"moveFrequency":3,"moveRoute":{"list":[{"code":0,"parameters":[]}],"repeat":true,"skippable":false,"wait":false},"moveSpeed":3,"moveType":0,"priorityType":1,"stepAnime":false,"through":false,"trigger":0,"walkAnime":true},{"conditions":{"actorId":1,"actorValid":false,"itemId":8,"itemValid":true,"selfSwitchCh":"A","selfSwitchValid":true,"switch1Id":1,"switch1Valid":false,"switch2Id":1,"switch2Valid":false,"variableId":1,"variableValid":false,"variableValue":0},"directionFix":false,"image":{"tileId":82,"characterName":"","characterIndex":0,"direction":2,"pattern":0},"list":[{"code":122,"indent":0,"parameters":[2,2,0,0,1]},{"code":122,"indent":0,"parameters":[3,3,0,4,"\"Pond water\""]},{"code":122,"indent":0,"parameters":[4,4,0,0,228]},{"code":126,"indent":0,"parameters":[8,1,0,1]},{"code":126,"indent":0,"parameters":[9,0,0,1]},{"code":117,"indent":0,"parameters":[2]},{"code":123,"indent":0,"parameters":["A",1]},{"code":123,"indent":0,"parameters":["B",0]},{"code":0,"indent":0,"parameters":[]}],"moveFrequency":3,"moveRoute":{"list":[{"code":0,"parameters":[]}],"repeat":true,"skippable":false,"wait":false},"moveSpeed":3,"moveType":0,"priorityType":1,"stepAnime":false,"through":false,"trigger":0,"walkAnime":true},{"conditions":{"actorId":1,"actorValid":false,"itemId":8,"itemValid":false,"selfSwitchCh":"B","selfSwitchValid":true,"switch1Id":1,"switch1Valid":false,"switch2Id":1,"switch2Valid":false,"variableId":1,"variableValid":false,"variableValue":0},"directionFix":false,"image":{"tileId":81,"characterName":"","characterIndex":0,"direction":2,"pattern":0},"list":[{"code":0,"indent":0,"parameters":[]}],"moveFrequency":3,"moveRoute":{"list":[{"code":0,"parameters":[]}],"repeat":true,"skippable":false,"wait":false},"moveSpeed":3,"moveType":0,"priorityType":1,"stepAnime":false,"through":false,"trigger":0,"walkAnime":true}],"x":4,"y":12},
{"id":7,"name":"EV007","note":"","pages":[{"conditions":{"actorId":1,"actorValid":false,"itemId":1,"itemValid":false,"selfSwitchCh":"A","selfSwitchValid":false,"switch1Id":2,"switch1Valid":true,"switch2Id":1,"switch2Valid":false,"variableId":1,"variableValid":false,"variableValue":0},"directionFix":false,"image":{"tileId":0,"characterName":"","direction":2,"pattern":2,"characterIndex":1},"list":[{"code":212,"indent":0,"parameters":[8,123,true]},{"code":205,"indent":0,"parameters":[-1,{"list":[{"code":19,"indent":null},{"code":0}],"repeat":false,"skippable":false,"wait":false}]},{"code":505,"indent":0,"parameters":[{"code":19,"indent":null}]},{"code":213,"indent":0,"parameters":[-1,1,false]},{"code":123,"indent":0,"parameters":["A",0]},{"code":0,"indent":0,"parameters":[]}],"moveFrequency":3,"moveRoute":{"list":[{"code":0,"parameters":[]}],"repeat":true,"skippable":false,"wait":false},"moveSpeed":3,"moveType":0,"priorityType":0,"stepAnime":false,"through":false,"trigger":3,"walkAnime":false},{"conditions":{"actorId":1,"actorValid":false,"itemId":1,"itemValid":false,"selfSwitchCh":"A","selfSwitchValid":true,"switch1Id":1,"switch1Valid":false,"switch2Id":1,"switch2Valid":false,"variableId":1,"variableValid":false,"variableValue":0},"directionFix":false,"image":{"characterIndex":0,"characterName":"","direction":2,"pattern":0,"tileId":0},"list":[{"code":301,"indent":0,"parameters":[0,1,false,true]},{"code":601,"indent":0,"parameters":[]},{"code":123,"indent":1,"parameters":["A",1]},{"code":123,"indent":1,"parameters":["B",0]},{"code":0,"indent":1,"parameters":[]},{"code":603,"indent":0,"parameters":[]},{"code":117,"indent":1,"parameters":[14]},{"code":0,"indent":1,"parameters":[]},{"code":604,"indent":0,"parameters":[]},{"code":121,"indent":0,"parameters":[3,3,1]},{"code":0,"indent":0,"parameters":[]}],"moveFrequency":3,"moveRoute":{"list":[{"code":0,"parameters":[]}],"repeat":true,"skippable":false,"wait":false},"moveSpeed":3,"moveType":0,"priorityType":0,"stepAnime":false,"through":false,"trigger":1,"walkAnime":true},{"conditions":{"actorId":1,"actorValid":false,"itemId":1,"itemValid":false,"selfSwitchCh":"B","selfSwitchValid":true,"switch1Id":1,"switch1Valid":false,"switch2Id":1,"switch2Valid":false,"variableId":1,"variableValid":false,"variableValue":0},"directionFix":false,"image":{"characterIndex":0,"characterName":"","direction":2,"pattern":0,"tileId":0},"list":[{"code":126,"indent":0,"parameters":[11,0,0,1]},{"code":122,"indent":0,"parameters":[2,2,0,0,1]},{"code":122,"indent":0,"parameters":[3,3,0,4,"\"Scroll\""]},{"code":122,"indent":0,"parameters":[4,4,0,0,191]},{"code":117,"indent":0,"parameters":[4]},{"code":101,"indent":0,"parameters":["Luna-DKT02",3,0,2]},{"code":401,"indent":0,"parameters":["\\.This... is a map...?"]},{"code":121,"indent":0,"parameters":[5,5,0]},{"code":123,"indent":0,"parameters":["C",0]},{"code":0,"indent":0,"parameters":[]}],"moveFrequency":3,"moveRoute":{"list":[{"code":0,"parameters":[]}],"repeat":true,"skippable":false,"wait":false},"moveSpeed":3,"moveType":0,"priorityType":0,"stepAnime":false,"through":false,"trigger":3,"walkAnime":true},{"conditions":{"actorId":1,"actorValid":false,"itemId":1,"itemValid":false,"selfSwitchCh":"C","selfSwitchValid":true,"switch1Id":1,"switch1Valid":false,"switch2Id":1,"switch2Valid":false,"variableId":1,"variableValid":false,"variableValue":0},"directionFix":false,"image":{"characterIndex":0,"characterName":"","direction":2,"pattern":0,"tileId":0},"list":[{"code":0,"indent":0,"parameters":[]}],"moveFrequency":3,"moveRoute":{"list":[{"code":0,"parameters":[]}],"repeat":true,"skippable":false,"wait":false},"moveSpeed":3,"moveType":0,"priorityType":0,"stepAnime":false,"through":false,"trigger":0,"walkAnime":true}],"x":16,"y":9},
{"id":8,"name":"EV008","note":"","pages":[{"conditions":{"actorId":1,"actorValid":false,"itemId":1,"itemValid":false,"selfSwitchCh":"A","selfSwitchValid":false,"switch1Id":1,"switch1Valid":false,"switch2Id":1,"switch2Valid":false,"variableId":1,"variableValid":false,"variableValue":0},"directionFix":false,"image":{"characterIndex":0,"characterName":"","direction":2,"pattern":0,"tileId":0},"list":[{"code":0,"indent":0,"parameters":[]}],"moveFrequency":3,"moveRoute":{"list":[{"code":0,"parameters":[]}],"repeat":true,"skippable":false,"wait":false},"moveSpeed":3,"moveType":0,"priorityType":0,"stepAnime":false,"through":false,"trigger":0,"walkAnime":true}],"x":17,"y":9},
{"id":9,"name":"EV009","note":"","pages":[{"conditions":{"actorId":1,"actorValid":false,"itemId":1,"itemValid":false,"selfSwitchCh":"A","selfSwitchValid":false,"switch1Id":1,"switch1Valid":false,"switch2Id":1,"switch2Valid":false,"variableId":1,"variableValid":false,"variableValue":0},"directionFix":false,"image":{"tileId":0,"characterName":"","direction":2,"pattern":1,"characterIndex":1},"list":[{"code":117,"indent":0,"parameters":[6]},{"code":123,"indent":0,"parameters":["A",0]},{"code":0,"indent":0,"parameters":[]}],"moveFrequency":3,"moveRoute":{"list":[{"code":0,"parameters":[]}],"repeat":true,"skippable":false,"wait":false},"moveSpeed":3,"moveType":0,"priorityType":1,"stepAnime":false,"through":false,"trigger":0,"walkAnime":true},{"conditions":{"actorId":1,"actorValid":false,"itemId":1,"itemValid":false,"selfSwitchCh":"A","selfSwitchValid":true,"switch1Id":1,"switch1Valid":false,"switch2Id":1,"switch2Valid":false,"variableId":1,"variableValid":false,"variableValue":0},"directionFix":false,"image":{"characterIndex":0,"characterName":"","direction":2,"pattern":0,"tileId":0},"list":[{"code":0,"indent":0,"parameters":[]}],"moveFrequency":3,"moveRoute":{"list":[{"code":0,"parameters":[]}],"repeat":true,"skippable":false,"wait":false},"moveSpeed":3,"moveType":0,"priorityType":0,"stepAnime":false,"through":false,"trigger":0,"walkAnime":true}],"x":7,"y":13},
{"id":10,"name":"EV010","note":"","pages":[{"conditions":{"actorId":1,"actorValid":false,"itemId":1,"itemValid":false,"selfSwitchCh":"A","selfSwitchValid":false,"switch1Id":6,"switch1Valid":false,"switch2Id":1,"switch2Valid":false,"variableId":1,"variableValid":false,"variableValue":0},"directionFix":false,"image":{"characterIndex":0,"characterName":"","direction":2,"pattern":0,"tileId":0},"list":[{"code":121,"indent":0,"parameters":[6,6,0]},{"code":214,"indent":0,"parameters":[]},{"code":0,"indent":0,"parameters":[]}],"moveFrequency":3,"moveRoute":{"list":[{"code":0,"parameters":[]}],"repeat":true,"skippable":false,"wait":false},"moveSpeed":3,"moveType":0,"priorityType":0,"stepAnime":false,"through":false,"trigger":3,"walkAnime":true}],"x":19,"y":16},
{"id":11,"name":"Rdm encounters","note":"","pages":[{"conditions":{"actorId":1,"actorValid":false,"itemId":1,"itemValid":false,"selfSwitchCh":"A","selfSwitchValid":false,"switch1Id":1,"switch1Valid":false,"switch2Id":1,"switch2Valid":false,"variableId":1,"variableValid":false,"variableValue":0},"directionFix":false,"image":{"characterIndex":0,"characterName":"","direction":2,"pattern":0,"tileId":0},"list":[{"code":136,"indent":0,"parameters":[1]},{"code":214,"indent":0,"parameters":[]},{"code":0,"indent":0,"parameters":[]}],"moveFrequency":3,"moveRoute":{"list":[{"code":0,"parameters":[]}],"repeat":true,"skippable":false,"wait":false},"moveSpeed":3,"moveType":0,"priorityType":0,"stepAnime":false,"through":false,"trigger":3,"walkAnime":true},{"conditions":{"actorId":1,"actorValid":false,"itemId":1,"itemValid":false,"selfSwitchCh":"A","selfSwitchValid":false,"switch1Id":3,"switch1Valid":true,"switch2Id":1,"switch2Valid":false,"variableId":1,"variableValid":false,"variableValue":0},"directionFix":false,"image":{"characterIndex":0,"characterName":"","direction":2,"pattern":0,"tileId":0},"list":[{"code":214,"indent":0,"parameters":[]},{"code":0,"indent":0,"parameters":[]}],"moveFrequency":3,"moveRoute":{"list":[{"code":0,"parameters":[]}],"repeat":true,"skippable":false,"wait":false},"moveSpeed":3,"moveType":0,"priorityType":0,"stepAnime":false,"through":false,"trigger":3,"walkAnime":true}],"x":0,"y":0}
]
}