[
null,
{"id":1,"animationId":1,"damage":{"critical":true,"elementId":-1,"formula":"a.atk * 4 - b.def * 2","type":1,"variance":20},"description":"","effects":[{"code":21,"dataId":0,"value1":1,"value2":0},{"code":13,"dataId":0,"value1":5,"value2":0}],"hitType":1,"iconIndex":76,"message1":" attacks!","message2":"","mpCost":0,"name":"Quick Attack","note":"Skill #1 will be used when you select\nthe Attack command.","occasion":1,"repeats":1,"requiredWtypeId1":0,"requiredWtypeId2":0,"scope":1,"speed":0,"stypeId":0,"successRate":100,"tpCost":0,"tpGain":10},
{"id":2,"animationId":0,"damage":{"critical":false,"elementId":0,"formula":"0","type":0,"variance":20},"description":"","effects":[{"code":21,"dataId":2,"value1":1,"value2":0}],"hitType":0,"iconIndex":81,"message1":" guards.","message2":"","mpCost":0,"name":"Guard","note":"Skill #2 will be used when you select\nthe Guard command.","occasion":1,"repeats":1,"requiredWtypeId1":0,"requiredWtypeId2":0,"scope":11,"speed":2000,"stypeId":0,"successRate":100,"tpCost":0,"tpGain":10},
{"id":3,"animationId":0,"damage":{"critical":false,"elementId":0,"formula":"0","type":0,"variance":20},"description":"","effects":[],"hitType":0,"iconIndex":81,"message1":" waits.","message2":"","mpCost":0,"name":"Wait","note":"","occasion":1,"repeats":1,"requiredWtypeId1":0,"requiredWtypeId2":0,"scope":0,"speed":0,"stypeId":0,"successRate":100,"tpCost":0,"tpGain":10},
{"id":4,"animationId":0,"damage":{"critical":false,"elementId":0,"formula":"0","type":0,"variance":20},"description":"","effects":[{"code":41,"dataId":0,"value1":0,"value2":0}],"hitType":0,"iconIndex":82,"message1":" flees.","message2":"","mpCost":0,"name":"Escape","note":"","occasion":1,"repeats":1,"requiredWtypeId1":0,"requiredWtypeId2":0,"scope":11,"speed":0,"stypeId":0,"successRate":100,"tpCost":0,"tpGain":0},
{"id":5,"animationId":41,"damage":{"critical":false,"elementId":0,"formula":"100 + 30 * a.level","type":3,"variance":10},"description":"Medicine skills. Effects increase with the level of\nthe user.","effects":[],"hitType":0,"iconIndex":72,"message1":" casts %1!","message2":"","mpCost":20,"name":"Heal","note":"","occasion":0,"repeats":1,"requiredWtypeId1":0,"requiredWtypeId2":0,"scope":7,"speed":0,"stypeId":2,"successRate":100,"tpCost":0,"tpGain":0},
{"id":6,"animationId":16,"damage":{"critical":true,"elementId":-1,"formula":"a.atk * 3 - b.def * 2","type":1,"variance":20},"description":"Simple, effective claw attack.","effects":[{"code":21,"dataId":0,"value1":1,"value2":0}],"hitType":1,"iconIndex":105,"message1":" claws!","message2":"","mpCost":0,"name":"Claw slash","note":"","occasion":1,"repeats":1,"requiredWtypeId1":0,"requiredWtypeId2":0,"scope":1,"speed":2,"stypeId":1,"successRate":100,"tpCost":0,"tpGain":15},
{"id":7,"animationId":18,"damage":{"critical":true,"elementId":2,"formula":"(a.atk + a.mat) * 3 - (b.def + b.mdf) * 2","type":1,"variance":5},"description":"Fire claw attack. Tears and cauterizes skin\nat the same time.","effects":[{"code":21,"dataId":0,"value1":1,"value2":0},{"code":21,"dataId":13,"value1":0.5,"value2":0}],"hitType":1,"iconIndex":105,"message1":" attacks!","message2":"","mpCost":10,"name":"Fire Claw","note":"","occasion":1,"repeats":1,"requiredWtypeId1":0,"requiredWtypeId2":0,"scope":1,"speed":2,"stypeId":1,"successRate":100,"tpCost":0,"tpGain":15},
{"id":8,"animationId":107,"damage":{"critical":true,"elementId":2,"formula":"100 + a.mat * 2 - b.mdf * 2","type":1,"variance":5},"description":"Powerful fire vortex.","effects":[{"code":21,"dataId":13,"value1":0.5,"value2":0}],"hitType":2,"iconIndex":64,"message1":" breathes fire!","message2":"","mpCost":20,"name":"Fire Breath","note":"","occasion":1,"repeats":1,"requiredWtypeId1":0,"requiredWtypeId2":0,"scope":1,"speed":0,"stypeId":1,"successRate":100,"tpCost":0,"tpGain":5},
{"id":9,"animationId":125,"damage":{"critical":true,"elementId":9,"formula":"50 + a.atk * 5 - b.def * 3","type":1,"variance":10},"description":"Powder that explodes when triggered by a spark. \nHits 3 times.","effects":[{"code":21,"dataId":11,"value1":0.15,"value2":0}],"hitType":2,"iconIndex":78,"message1":" sets %1 on fire!","message2":"","mpCost":50,"name":"Blast powder","note":"","occasion":1,"repeats":1,"requiredWtypeId1":0,"requiredWtypeId2":0,"scope":5,"speed":-1,"stypeId":1,"successRate":100,"tpCost":20,"tpGain":3},
{"id":10,"animationId":124,"damage":{"critical":false,"elementId":2,"formula":"200 + (a.mat + a.atk) * 4 - (b.mdf + b.def) * 2","type":1,"variance":10},"description":"Extremely powerful explosion igniting all the nearby\npowder at once. Hits 4 times.","effects":[{"code":21,"dataId":11,"value1":0.35,"value2":0},{"code":21,"dataId":13,"value1":0.5,"value2":0}],"hitType":2,"iconIndex":89,"message1":" explodes!","message2":"","mpCost":30,"name":"Supernova","note":"","occasion":1,"repeats":1,"requiredWtypeId1":0,"requiredWtypeId2":0,"scope":6,"speed":-5,"stypeId":1,"successRate":100,"tpCost":100,"tpGain":0},
{"id":11,"animationId":30,"damage":{"critical":true,"elementId":2,"formula":"50 + a.mat * 4 - b.mdf * 3","type":1,"variance":20},"description":"Flying fireballs controlled by Ely's will.","effects":[{"code":21,"dataId":13,"value1":0.5,"value2":0}],"hitType":1,"iconIndex":64,"message1":" summons %1!","message2":"","mpCost":20,"name":"Fireballs","note":"","occasion":1,"repeats":1,"requiredWtypeId1":0,"requiredWtypeId2":0,"scope":1,"speed":2,"stypeId":1,"successRate":100,"tpCost":0,"tpGain":10},
{"id":12,"animationId":122,"damage":{"critical":false,"elementId":2,"formula":"100 + (a.mat + a.atk) * 3 - (b.mdf + b.def) * 2","type":1,"variance":20},"description":"Summoned fireballs falling down to crush all enemies.","effects":[{"code":21,"dataId":13,"value1":0.3,"value2":0}],"hitType":1,"iconIndex":118,"message1":" summons %1!","message2":"","mpCost":50,"name":"Meteors","note":"","occasion":1,"repeats":1,"requiredWtypeId1":0,"requiredWtypeId2":0,"scope":2,"speed":-5,"stypeId":1,"successRate":95,"tpCost":100,"tpGain":0},
{"id":13,"animationId":59,"damage":{"critical":false,"elementId":0,"formula":"a.mat","type":1,"variance":20},"description":"Glob of poison. Effective.","effects":[{"code":21,"dataId":4,"value1":1,"value2":0}],"hitType":2,"iconIndex":302,"message1":" spits a %1!","message2":"","mpCost":15,"name":"Poison glob","note":"","occasion":1,"repeats":1,"requiredWtypeId1":0,"requiredWtypeId2":0,"scope":1,"speed":0,"stypeId":1,"successRate":100,"tpCost":0,"tpGain":5},
{"id":14,"animationId":33,"damage":{"critical":false,"elementId":0,"formula":"20","type":1,"variance":20},"description":"A cloud of deadly poison. Hits 3 times.","effects":[{"code":21,"dataId":4,"value1":0.8,"value2":0}],"hitType":2,"iconIndex":10,"message1":" blows a %1!","message2":"","mpCost":20,"name":"Poison cloud","note":"","occasion":1,"repeats":1,"requiredWtypeId1":0,"requiredWtypeId2":0,"scope":5,"speed":0,"stypeId":1,"successRate":100,"tpCost":0,"tpGain":5},
{"id":15,"animationId":35,"damage":{"critical":false,"elementId":0,"formula":"0","type":0,"variance":20},"description":"Misty cloud that blinding nearby enemies.","effects":[{"code":21,"dataId":5,"value1":0.3,"value2":0}],"hitType":2,"iconIndex":3,"message1":" produces a %1!","message2":"","mpCost":20,"name":"Mist","note":"","occasion":1,"repeats":1,"requiredWtypeId1":0,"requiredWtypeId2":0,"scope":2,"speed":0,"stypeId":1,"successRate":100,"tpCost":20,"tpGain":5},
{"id":16,"animationId":92,"damage":{"critical":true,"elementId":0,"formula":"50 + a.mat * 2 - b.mdf","type":1,"variance":20},"description":"Strong gust of wind. ","effects":[{"code":21,"dataId":11,"value1":0.1,"value2":0}],"hitType":1,"iconIndex":71,"message1":" blows a %1!","message2":"","mpCost":15,"name":"Wind gust","note":"","occasion":1,"repeats":1,"requiredWtypeId1":0,"requiredWtypeId2":0,"scope":1,"speed":2,"stypeId":1,"successRate":100,"tpCost":0,"tpGain":10},
{"id":17,"animationId":94,"damage":{"critical":false,"elementId":0,"formula":"200 + (a.atk + a.mat) * a.level - (b.def + b.mdf) ","type":1,"variance":20},"description":"Powerful winds which effectiveness considerably \nincreases with Kusha's level. Hits twice.","effects":[{"code":21,"dataId":7,"value1":0.5,"value2":0}],"hitType":1,"iconIndex":69,"message1":" blows a %1!","message2":"","mpCost":40,"name":"Tornado","note":"","occasion":1,"repeats":1,"requiredWtypeId1":0,"requiredWtypeId2":0,"scope":4,"speed":-2,"stypeId":1,"successRate":100,"tpCost":30,"tpGain":10},
{"id":18,"animationId":126,"damage":{"critical":false,"elementId":0,"formula":"(a.atk) * 3 - b.def ","type":1,"variance":15},"description":"Axe discharge. Can stun the target.","effects":[{"code":21,"dataId":11,"value1":0.8,"value2":0}],"hitType":1,"iconIndex":78,"message1":" performs an %1!","message2":"","mpCost":30,"name":"Elemental discharge","note":"","occasion":1,"repeats":5,"requiredWtypeId1":2,"requiredWtypeId2":0,"scope":1,"speed":-2,"stypeId":1,"successRate":100,"tpCost":80,"tpGain":0},
{"id":19,"animationId":6,"damage":{"critical":true,"elementId":0,"formula":"a.atk * 2 - b.def","type":1,"variance":20},"description":"Wide, energic slash.","effects":[],"hitType":1,"iconIndex":76,"message1":" slashes!","message2":"","mpCost":10,"name":"Sword slash","note":"","occasion":1,"repeats":1,"requiredWtypeId1":2,"requiredWtypeId2":0,"scope":1,"speed":0,"stypeId":1,"successRate":100,"tpCost":0,"tpGain":10},
{"id":20,"animationId":11,"damage":{"critical":true,"elementId":0,"formula":"a.atk * 4 - b.def * 3","type":1,"variance":20},"description":"Quick and piercing thrust.","effects":[],"hitType":1,"iconIndex":76,"message1":" stabs!","message2":"","mpCost":0,"name":"Stab","note":"","occasion":1,"repeats":1,"requiredWtypeId1":0,"requiredWtypeId2":0,"scope":1,"speed":5,"stypeId":1,"successRate":100,"tpCost":0,"tpGain":15},
{"id":21,"animationId":11,"damage":{"critical":false,"elementId":0,"formula":"50","type":1,"variance":20},"description":"","effects":[],"hitType":1,"iconIndex":107,"message1":" pierces through!","message2":"","mpCost":0,"name":"Pierce","note":"","occasion":1,"repeats":1,"requiredWtypeId1":0,"requiredWtypeId2":0,"scope":1,"speed":0,"stypeId":0,"successRate":100,"tpCost":0,"tpGain":10},
{"id":22,"animationId":127,"damage":{"critical":false,"elementId":0,"formula":"0","type":1,"variance":20},"description":"Can steal various objects from the enemy.","effects":[{"code":44,"dataId":7,"value1":1,"value2":0}],"hitType":1,"iconIndex":106,"message1":" steals an object!","message2":"","mpCost":0,"name":"Steal","note":"","occasion":1,"repeats":1,"requiredWtypeId1":0,"requiredWtypeId2":0,"scope":1,"speed":0,"stypeId":1,"successRate":60,"tpCost":20,"tpGain":0},
{"id":23,"animationId":2,"damage":{"critical":true,"elementId":0,"formula":"a.atk * 2 - b.def","type":1,"variance":20},"description":"For light damage.","effects":[],"hitType":1,"iconIndex":114,"message1":" attacks!","message2":"","mpCost":0,"name":"Tongue swipe","note":"","occasion":1,"repeats":1,"requiredWtypeId1":0,"requiredWtypeId2":0,"scope":1,"speed":0,"stypeId":1,"successRate":100,"tpCost":0,"tpGain":10},
{"id":24,"animationId":11,"damage":{"critical":true,"elementId":0,"formula":"a.atk * 3 - b.def * 2","type":1,"variance":15},"description":"Three hits on the same target.","effects":[],"hitType":1,"iconIndex":97,"message1":"","message2":"","mpCost":0,"name":"Triple thrust","note":"","occasion":1,"repeats":3,"requiredWtypeId1":0,"requiredWtypeId2":0,"scope":1,"speed":0,"stypeId":1,"successRate":100,"tpCost":20,"tpGain":0},
{"id":25,"animationId":130,"damage":{"critical":true,"elementId":0,"formula":"80 + a.mat * 3 - b.mdf * 2","type":1,"variance":10},"description":"A large swarm of fireballs.","effects":[{"code":21,"dataId":13,"value1":0.1,"value2":0}],"hitType":1,"iconIndex":71,"message1":"","message2":"","mpCost":60,"name":"Fire swarm","note":"","occasion":1,"repeats":1,"requiredWtypeId1":0,"requiredWtypeId2":0,"scope":5,"speed":0,"stypeId":1,"successRate":100,"tpCost":20,"tpGain":0},
{"id":26,"animationId":129,"damage":{"critical":true,"elementId":0,"formula":"20 + (a.atk) * 2 - (a.def) * 2","type":1,"variance":20},"description":"","effects":[],"hitType":1,"iconIndex":111,"message1":" uses %1!","message2":"","mpCost":20,"name":"Chain combo","note":"","occasion":1,"repeats":1,"requiredWtypeId1":0,"requiredWtypeId2":0,"scope":1,"speed":0,"stypeId":1,"successRate":100,"tpCost":0,"tpGain":0},
{"id":27,"animationId":23,"damage":{"critical":true,"elementId":0,"formula":"50 + (a.atk) * 2 - b.def","type":1,"variance":20},"description":"","effects":[],"hitType":1,"iconIndex":76,"message1":" charges forward!","message2":"","mpCost":20,"name":"Blade technique","note":"","occasion":1,"repeats":1,"requiredWtypeId1":0,"requiredWtypeId2":0,"scope":1,"speed":0,"stypeId":1,"successRate":100,"tpCost":0,"tpGain":0},
{"id":28,"animationId":39,"damage":{"critical":true,"elementId":0,"formula":"50 + a.atk * 3 - b.def * 2","type":1,"variance":2},"description":"","effects":[{"code":21,"dataId":11,"value1":0.4,"value2":0}],"hitType":1,"iconIndex":98,"message1":" crushes!","message2":"","mpCost":20,"name":"Heavy crush","note":"","occasion":1,"repeats":1,"requiredWtypeId1":0,"requiredWtypeId2":0,"scope":1,"speed":0,"stypeId":1,"successRate":100,"tpCost":20,"tpGain":0},
{"id":29,"animationId":37,"damage":{"critical":false,"elementId":0,"formula":"0","type":0,"variance":20},"description":"A loud roar able to incapacitate nearby enemies.","effects":[{"code":21,"dataId":7,"value1":0.5,"value2":0}],"hitType":0,"iconIndex":5,"message1":" roars!","message2":"","mpCost":0,"name":"Roar","note":"","occasion":1,"repeats":1,"requiredWtypeId1":0,"requiredWtypeId2":0,"scope":2,"speed":1,"stypeId":1,"successRate":100,"tpCost":30,"tpGain":0},
{"id":30,"animationId":132,"damage":{"critical":true,"elementId":0,"formula":"50 + a.atk * 4 - b.def * 2","type":1,"variance":20},"description":"","effects":[{"code":21,"dataId":11,"value1":0.1,"value2":0}],"hitType":1,"iconIndex":77,"message1":" punches!","message2":"","mpCost":0,"name":"Impact","note":"","occasion":0,"repeats":1,"requiredWtypeId1":0,"requiredWtypeId2":0,"scope":1,"speed":0,"stypeId":1,"successRate":100,"tpCost":0,"tpGain":20},
{"id":31,"animationId":0,"damage":{"critical":true,"elementId":0,"formula":"100 + a.atk * 5 - b.def * 3","type":1,"variance":10},"description":"","effects":[],"hitType":0,"iconIndex":98,"message1":"","message2":"","mpCost":30,"name":"Mace swing","note":"","occasion":1,"repeats":1,"requiredWtypeId1":0,"requiredWtypeId2":0,"scope":4,"speed":0,"stypeId":1,"successRate":100,"tpCost":40,"tpGain":0},
{"id":32,"animationId":52,"damage":{"critical":false,"elementId":0,"formula":"50 + 15 * a.level","type":4,"variance":20},"description":"Self energy boost.","effects":[{"code":31,"dataId":1,"value1":5,"value2":0}],"hitType":0,"iconIndex":75,"message1":" channels energy!","message2":"","mpCost":0,"name":"Energy channeling","note":"","occasion":0,"repeats":1,"requiredWtypeId1":0,"requiredWtypeId2":0,"scope":11,"speed":0,"stypeId":2,"successRate":100,"tpCost":80,"tpGain":0},
{"id":33,"animationId":57,"damage":{"critical":false,"elementId":0,"formula":"0","type":0,"variance":20},"description":"","effects":[{"code":21,"dataId":7,"value1":0.6,"value2":0}],"hitType":2,"iconIndex":316,"message1":" uses %1!","message2":"","mpCost":20,"name":"Binding trap","note":"","occasion":0,"repeats":1,"requiredWtypeId1":0,"requiredWtypeId2":0,"scope":1,"speed":0,"stypeId":1,"successRate":80,"tpCost":0,"tpGain":5},
{"id":34,"animationId":54,"damage":{"critical":false,"elementId":0,"formula":"20 + a.mat - b.mdf","type":6,"variance":10},"description":"","effects":[],"hitType":2,"iconIndex":11,"message1":" uses %1!","message2":"","mpCost":20,"name":"Stamina drain","note":"","occasion":0,"repeats":1,"requiredWtypeId1":0,"requiredWtypeId2":0,"scope":1,"speed":0,"stypeId":1,"successRate":80,"tpCost":10,"tpGain":0},
{"id":35,"animationId":40,"damage":{"critical":false,"elementId":0,"formula":"0","type":0,"variance":20},"description":"","effects":[{"code":21,"dataId":5,"value1":0.5,"value2":0}],"hitType":0,"iconIndex":87,"message1":" flashes a bomb!","message2":"","mpCost":0,"name":"Flash bomb","note":"","occasion":0,"repeats":1,"requiredWtypeId1":0,"requiredWtypeId2":0,"scope":2,"speed":0,"stypeId":1,"successRate":80,"tpCost":0,"tpGain":0},
{"id":36,"animationId":12,"damage":{"critical":true,"elementId":0,"formula":"a.atk * 3 - b.def ","type":1,"variance":10},"description":"","effects":[],"hitType":1,"iconIndex":102,"message1":" shoots a %1!","message2":"","mpCost":10,"name":"Piercing pod","note":"","occasion":0,"repeats":4,"requiredWtypeId1":0,"requiredWtypeId2":0,"scope":1,"speed":2,"stypeId":1,"successRate":100,"tpCost":0,"tpGain":10},
{"id":37,"animationId":2,"damage":{"critical":true,"elementId":0,"formula":"50 + a.atk * 3 - b.def","type":1,"variance":10},"description":"","effects":[{"code":21,"dataId":11,"value1":0.05,"value2":0}],"hitType":1,"iconIndex":78,"message1":" shoots a %1!","message2":"","mpCost":20,"name":"Bomb pod","note":"","occasion":0,"repeats":1,"requiredWtypeId1":0,"requiredWtypeId2":0,"scope":1,"speed":0,"stypeId":1,"successRate":100,"tpCost":0,"tpGain":20},
{"id":38,"animationId":0,"damage":{"critical":false,"elementId":0,"formula":"0","type":0,"variance":20},"description":"","effects":[],"hitType":0,"iconIndex":0,"message1":"","message2":"","mpCost":0,"name":"","note":"","occasion":0,"repeats":1,"requiredWtypeId1":0,"requiredWtypeId2":0,"scope":1,"speed":0,"stypeId":1,"successRate":100,"tpCost":0,"tpGain":0},
{"id":39,"animationId":0,"damage":{"critical":false,"elementId":0,"formula":"0","type":0,"variance":20},"description":"","effects":[],"hitType":0,"iconIndex":0,"message1":"","message2":"","mpCost":0,"name":"","note":"","occasion":0,"repeats":1,"requiredWtypeId1":0,"requiredWtypeId2":0,"scope":1,"speed":0,"stypeId":1,"successRate":100,"tpCost":0,"tpGain":0},
{"id":40,"animationId":0,"damage":{"critical":false,"elementId":0,"formula":"0","type":0,"variance":20},"description":"","effects":[],"hitType":0,"iconIndex":0,"message1":"","message2":"","mpCost":0,"name":"","note":"","occasion":0,"repeats":1,"requiredWtypeId1":0,"requiredWtypeId2":0,"scope":1,"speed":0,"stypeId":1,"successRate":100,"tpCost":0,"tpGain":0},
{"id":41,"animationId":0,"damage":{"critical":false,"elementId":0,"formula":"0","type":0,"variance":20},"description":"","effects":[],"hitType":0,"iconIndex":0,"message1":"","message2":"","mpCost":0,"name":"","note":"","occasion":0,"repeats":1,"requiredWtypeId1":0,"requiredWtypeId2":0,"scope":1,"speed":0,"stypeId":1,"successRate":100,"tpCost":0,"tpGain":0},
{"id":42,"animationId":0,"damage":{"critical":false,"elementId":0,"formula":"0","type":0,"variance":20},"description":"","effects":[],"hitType":0,"iconIndex":0,"message1":"","message2":"","mpCost":0,"name":"","note":"","occasion":0,"repeats":1,"requiredWtypeId1":0,"requiredWtypeId2":0,"scope":1,"speed":0,"stypeId":1,"successRate":100,"tpCost":0,"tpGain":0},
{"id":43,"animationId":0,"damage":{"critical":false,"elementId":0,"formula":"0","type":0,"variance":20},"description":"","effects":[],"hitType":0,"iconIndex":0,"message1":"","message2":"","mpCost":0,"name":"","note":"","occasion":0,"repeats":1,"requiredWtypeId1":0,"requiredWtypeId2":0,"scope":1,"speed":0,"stypeId":1,"successRate":100,"tpCost":0,"tpGain":0},
{"id":44,"animationId":0,"damage":{"critical":false,"elementId":0,"formula":"0","type":0,"variance":20},"description":"","effects":[],"hitType":0,"iconIndex":0,"message1":"","message2":"","mpCost":0,"name":"","note":"","occasion":0,"repeats":1,"requiredWtypeId1":0,"requiredWtypeId2":0,"scope":1,"speed":0,"stypeId":1,"successRate":100,"tpCost":0,"tpGain":0},
{"id":45,"animationId":0,"damage":{"critical":false,"elementId":0,"formula":"0","type":0,"variance":20},"description":"","effects":[],"hitType":0,"iconIndex":0,"message1":"","message2":"","mpCost":0,"name":"","note":"","occasion":0,"repeats":1,"requiredWtypeId1":0,"requiredWtypeId2":0,"scope":1,"speed":0,"stypeId":1,"successRate":100,"tpCost":0,"tpGain":0},
{"id":46,"animationId":0,"damage":{"critical":false,"elementId":0,"formula":"0","type":0,"variance":20},"description":"","effects":[],"hitType":0,"iconIndex":0,"message1":"","message2":"","mpCost":0,"name":"","note":"","occasion":0,"repeats":1,"requiredWtypeId1":0,"requiredWtypeId2":0,"scope":1,"speed":0,"stypeId":1,"successRate":100,"tpCost":0,"tpGain":0},
{"id":47,"animationId":0,"damage":{"critical":false,"elementId":0,"formula":"0","type":0,"variance":20},"description":"","effects":[],"hitType":0,"iconIndex":0,"message1":"","message2":"","mpCost":0,"name":"","note":"","occasion":0,"repeats":1,"requiredWtypeId1":0,"requiredWtypeId2":0,"scope":1,"speed":0,"stypeId":1,"successRate":100,"tpCost":0,"tpGain":0},
{"id":48,"animationId":0,"damage":{"critical":false,"elementId":0,"formula":"0","type":0,"variance":20},"description":"","effects":[],"hitType":0,"iconIndex":0,"message1":"","message2":"","mpCost":0,"name":"","note":"","occasion":0,"repeats":1,"requiredWtypeId1":0,"requiredWtypeId2":0,"scope":1,"speed":0,"stypeId":1,"successRate":100,"tpCost":0,"tpGain":0},
{"id":49,"animationId":0,"damage":{"critical":false,"elementId":0,"formula":"0","type":0,"variance":20},"description":"","effects":[],"hitType":0,"iconIndex":0,"message1":"","message2":"","mpCost":0,"name":"","note":"","occasion":0,"repeats":1,"requiredWtypeId1":0,"requiredWtypeId2":0,"scope":1,"speed":0,"stypeId":1,"successRate":100,"tpCost":0,"tpGain":0},
{"id":50,"animationId":0,"damage":{"critical":false,"elementId":0,"formula":"0","type":0,"variance":20},"description":"","effects":[],"hitType":0,"iconIndex":0,"message1":"","message2":"","mpCost":0,"name":"","note":"","occasion":0,"repeats":1,"requiredWtypeId1":0,"requiredWtypeId2":0,"scope":1,"speed":0,"stypeId":1,"successRate":100,"tpCost":0,"tpGain":0}
]