[
null,
{"id":1,"animationId":6,"description":"Short and effective sword.","etypeId":1,"traits":[{"code":31,"dataId":1,"value":0},{"code":22,"dataId":0,"value":0},{"code":43,"dataId":20,"value":1},{"code":43,"dataId":19,"value":1},{"code":43,"dataId":24,"value":1}],"iconIndex":97,"name":"Short sword","note":"","params":[0,0,20,0,0,0,0,0],"price":500,"wtypeId":2},
{"id":2,"animationId":6,"description":"","etypeId":1,"traits":[{"code":31,"dataId":1,"value":0},{"code":22,"dataId":0,"value":0}],"iconIndex":96,"name":"Dagger","note":"","params":[0,0,10,0,0,0,0,0],"price":500,"wtypeId":1},
{"id":3,"animationId":1,"description":"","etypeId":1,"traits":[{"code":31,"dataId":1,"value":0},{"code":22,"dataId":0,"value":0}],"iconIndex":107,"name":"Staff","note":"","params":[0,0,20,0,0,0,0,0],"price":500,"wtypeId":12},
{"id":4,"animationId":7,"description":"","etypeId":1,"traits":[{"code":31,"dataId":1,"value":0},{"code":22,"dataId":0,"value":0}],"iconIndex":112,"name":"Charge-blade sword","note":"","params":[0,0,35,0,20,0,0,0],"price":500,"wtypeId":2},
{"id":5,"animationId":0,"description":"","etypeId":1,"traits":[{"code":31,"dataId":1,"value":0},{"code":22,"dataId":0,"value":0}],"iconIndex":0,"name":"","note":"","params":[0,0,0,0,0,0,0,0],"price":0,"wtypeId":0},
{"id":6,"animationId":0,"description":"","etypeId":1,"traits":[{"code":31,"dataId":1,"value":0},{"code":22,"dataId":0,"value":0}],"iconIndex":0,"name":"","note":"","params":[0,0,0,0,0,0,0,0],"price":0,"wtypeId":0}
]